
namespace = conquest_of_paradise

# Ban Fur Trade
province_event = {
	id = conquest_of_paradise.300
	title = "colonial_nation.EVTNAME300"
	desc = "colonial_nation.EVTDESC300"
	picture = NATIVES_eventPicture
	goto = root
	
	trigger = {
		has_dlc = "Conquest of Paradise"
		owner = {
			is_colonial_nation = yes
		}
		is_colony = no
		trade_goods = fur
		has_empty_adjacent_province = yes
		owner = {
			NOT = {
				any_owned_province = {
					has_province_modifier = ban_fur_trade
				}
			}
		}
	}
	
	mean_time_to_happen = {
		months = 2000
	}
	
	option = {
		name = "colonial_nation.EVTOPTA300" # Approve the law
		ai_chance = { factor = 50 }
		add_province_modifier = {
			name = "ban_fur_trade"
			duration = 730
		}
	}
	option = {
		name = "colonial_nation.EVTOPTB300" # Ignore the issue
		ai_chance = { factor = 50 }
		owner = {
			add_prestige = -5
			add_dip_power = -5
		}
	}
}

# The Harvest of YEAR
province_event = {
	id = conquest_of_paradise.301
	title = "colonial_nation.EVTNAME301"
	desc = "colonial_nation.EVTDESC301"
	picture = FARMING_eventPicture
	goto = root
	
	trigger = {
		has_dlc = "Conquest of Paradise"
		owner = {
			is_colonial_nation = yes
		}
		is_colony = no
		NOT = { trade_goods = grain }
		NOT = { trade_goods = fish }
		has_empty_adjacent_province = yes
		is_month = 3 # April
		NOT = { is_month = 9 } # October
	}
	
	mean_time_to_happen = {
		months = 2000
	}
	
	option = {
		name = "colonial_nation.EVTOPTA301" # Take what we need
		ai_chance = { factor = 50 }
		owner = {
			add_mil_power = -10
		}		
	}
	option = {
		name = "colonial_nation.EVTOPTB301" # We will solve this ourselves
		ai_chance = { factor = 50 }
		owner = {
			add_adm_power = -5
		}
	}
}

# Wage Laws for Builders
country_event = {
	id = conquest_of_paradise.302
	title = "colonial_nation.EVTNAME302"
	desc = "colonial_nation.EVTDESC302"
	picture = COLONIZATION_eventPicture
	
	trigger = {
		has_dlc = "Conquest of Paradise"
		is_colonial_nation = yes
	}
	
	mean_time_to_happen = {
		months = 2000
	}
	
	option = {
		name = "colonial_nation.EVTOPTA302" # Vote yes, it's a sound idea
		ai_chance = { factor = 50 }
		add_adm_power = -25
		add_country_modifier = {
			name = "construction_wages"
			duration = 1095
		}
	}
	option = {
		name = "colonial_nation.EVTOPTB302" # We don't need to regulate that
		ai_chance = { factor = 50 }
		add_adm_power = 10
	}
}

#AnbennarDependencyNote = refers to ages
# Iron Discovered
province_event = {
	id = conquest_of_paradise.303
	title = "colonial_nation.EVTNAME303"
	desc = "colonial_nation.EVTDESC303"
	picture = CITY_DEVELOPMENT_eventPicture
	goto = root
	
	trigger = {
		has_dlc = "Conquest of Paradise"
		is_colony = no
		OR = {
			trade_goods = fur
			trade_goods = grain
		}
		owner = {
			NOT = { has_country_flag = iron_discovered }
			is_colonial_nation = yes
			OR = {
				current_age = age_of_absolutism
				current_age = age_of_revolutions
			}
			NOT = {
				any_owned_province = {
					trade_goods = iron
				}
			}
			num_of_cities = 5
		}
		NOT = { has_building = plantations }
		NOT = { has_building = tradecompany }
		num_free_building_slots = 1
	}
	
	mean_time_to_happen = {
		months = 2000
		modifier = {
			factor = 0.9
			current_age = age_of_revolutions
		}
	}

	immediate = {
		hidden_effect = {
			owner = {
				set_country_flag = iron_discovered
			}
		}
	}
	
	option = {
		name = "colonial_nation.EVTOPTA303" # Sounds like a good opportunity
		ai_chance = { factor = 100 }
		change_trade_goods = iron
		add_building = weapons
		add_province_modifier = {
			name = "tax_break_ore"
			duration = 3650
		}
	}
	option = {
		name = "colonial_nation.EVTOPTB303" # No, thanks
		ai_chance = { factor = 0 }
		owner = {
			add_mil_power = 25
		}
	}
}

#AnbennarDependencyNote = refers to ages
# Domestic Wool Industry
province_event = {
	id = conquest_of_paradise.304
	title = "colonial_nation.EVTNAME304"
	desc = "colonial_nation.EVTDESC304"
	picture = CITY_DEVELOPMENT_eventPicture
	goto = root
	
	trigger = {
		has_dlc = "Conquest of Paradise"
		is_colony = no
		OR = {
			trade_goods = fur
			trade_goods = grain
		}
		owner = {
			NOT = { has_country_flag = domestic_wool_industry }
			is_colonial_nation = yes
			OR = {
				current_age = age_of_absolutism
				current_age = age_of_revolutions
			}
			NOT = {
				any_owned_province = {
					trade_goods = wool
				}
			}
			num_of_cities = 5
		}
		
		NOT = { has_building = plantations }
		NOT = { has_building = tradecompany }
		num_free_building_slots = 1
	}
	
	mean_time_to_happen = {
		months = 2000
		modifier = {
			factor = 0.9
			current_age = age_of_revolutions
		}
	}

	immediate = {
		hidden_effect = {
			owner = {
				set_country_flag = domestic_wool_industry
			}
		}
	}
	
	option = {
		name = "colonial_nation.EVTOPTA304" # Sounds like a good opportunity
		ai_chance = { factor = 100 }
		owner = {
			add_adm_power = -10
		}
		change_trade_goods = wool
		add_building = textile
	}
	option = {
		name = "colonial_nation.EVTOPTB304" # No, thanks
		ai_chance = { factor = 0 }
		owner = {
			add_adm_power = 25
		}
	}
}

#AnbennarDependencyNote = ages again
# A Wharf Needed
province_event = {
	id = conquest_of_paradise.305
	title = "colonial_nation.EVTNAME305"
	desc = "colonial_nation.EVTDESC305"
	picture = CITY_DEVELOPMENT_eventPicture
	goto = root
	
	trigger = {
		has_dlc = "Conquest of Paradise"
		is_colony = no
		OR = {
			trade_goods = fur
			trade_goods = grain
		}
		owner = {
			NOT = { has_country_flag = a_wharf_needed }
			is_colonial_nation = yes
			OR = {
				current_age = age_of_absolutism
				current_age = age_of_revolutions
			}
			NOT = {
				any_owned_province = {
					OR = {
						trade_goods = salt
						trade_goods = naval_supplies
					}
				}
			}
			num_of_cities = 5
		}
		
		NOT = { has_building = plantations }
		NOT = { has_building = tradecompany }
		num_free_building_slots = 1
	}
	
	mean_time_to_happen = {
		months = 2000
		modifier = {
			factor = 0.9
			current_age = age_of_revolutions
		}
	}

	immediate = {
		hidden_effect = {
			owner = {
				set_country_flag = a_wharf_needed
			}
		}
	}
	
	option = {
		name = "colonial_nation.EVTOPTA305" # Sounds like a good opportunity
		ai_chance = { factor = 100 }
		random_list = {
			50 = {	change_trade_goods = salt }
			50 = {	change_trade_goods = naval_supplies }
		}
		add_building = wharf
		add_province_modifier = {
			name = "tax_break_wharf"
			duration = 3650
		}
	}
	option = {
		name = "colonial_nation.EVTOPTB305" # No, thanks
		ai_chance = { factor = 0 }
		owner = {
			add_mil_power = 25
		}
	}
}

# Cash Crop Ban
province_event = {
	id = conquest_of_paradise.306
	title = "colonial_nation.EVTNAME306"
	desc = "colonial_nation.EVTDESC306"
	picture = FARMING_eventPicture
	goto = root
	
	trigger = {
		has_dlc = "Conquest of Paradise"
		is_colony = no
		OR = {
			trade_goods = wine
			trade_goods = wool
			trade_goods = coffee
			trade_goods = cotton
			trade_goods = sugar
			trade_goods = tobacco
			trade_goods = cocoa
		}
		owner = {
			NOT = { has_country_flag = cash_crop_ban }
			is_colonial_nation = yes
		}
		
	}
	
	mean_time_to_happen = {
		months = 2000
	}
	
	immediate = {
		hidden_effect = {
			owner = {
				set_country_flag = cash_crop_ban
			}
		}
	}
	
	option = {
		name = "colonial_nation.EVTOPTA306" # A law seems necessary
		ai_chance = { factor = 75 }
		owner = {
			add_adm_power = -10
		}
		add_unrest = 1
		add_base_tax = 1
	}
	option = {
		name = "colonial_nation.EVTOPTB306" # It's none of our business
		ai_chance = { factor = 25 }
		owner = {
			add_adm_power = 10
		}
	}
}

# Banned Tobacco Planting
province_event = {
	id = conquest_of_paradise.307
	title = "colonial_nation.EVTNAME307"
	desc = "colonial_nation.EVTDESC307"
	picture = DEBATE_REPUBLICAN_eventPicture
	goto = root
	
	trigger = {
		has_dlc = "Conquest of Paradise"
		is_colony = no
		trade_goods = tobacco
		owner = {
			NOT = { has_country_flag = banned_tobacco_planting }
			is_colonial_nation = yes
		}
		
	}
	
	mean_time_to_happen = {
		months = 2000
		modifier = {
			factor = 0.75
			owner = {
				tobacco = 2
			}
		}
		modifier = {
			factor = 0.75
			owner = {
				tobacco = 3
			}
		}
		modifier = {
			factor = 0.75
			owner = {
				tobacco = 4
			}
		}
	}
	
	immediate = {
		hidden_effect = {
			owner = {
				set_country_flag = banned_tobacco_planting
			}
		}
	}
	
	option = {
		name = "colonial_nation.EVTOPTA307" # Enforce it
		ai_chance = { factor = 75 }
		owner = {
			add_adm_power = -10
		}
		add_unrest = 1
		add_base_tax = 1
		add_province_modifier = {
			name = "banned_tobacco_planting"
			duration = 365
		}
	}
	option = {
		name = "colonial_nation.EVTOPTB307" # Reject their proposal
		ai_chance = { factor = 25 }
		owner = {
			add_adm_power = 10
		}
	}
}

# Colonial Border Conflict
province_event = {
	id = conquest_of_paradise.310
	title = "colonial_nation.EVTNAME310"
	desc = "colonial_nation.EVTDESC310"
	picture = BORDER_TENSION_eventPicture
	goto = root
	
	trigger = {
		has_dlc = "Conquest of Paradise"
		is_colony = no
		owner = {
			NOT = { has_country_flag = colonial_border_conflict }
			is_colonial_nation = yes
		}
		
		any_neighbor_province = {
			NOT = { owned_by = ROOT }
			owner = {
				NOT = { has_country_flag = colonial_border_conflict }
				is_colonial_nation = yes
				colonial_parent = {
					any_subject_country = {
						is_colonial_nation = yes
						any_owned_province = {
							province_id = ROOT
						}
					}
				}
			}
			is_colony = no
		}
	}
	
	mean_time_to_happen = {
		months = 2000
	}
	
	immediate = {
		hidden_effect = {
			owner = {
				set_country_flag = colonial_border_conflict
			}
		}
	}
	
	option = {
		name = "colonial_nation.EVTOPTA310" # Send the local militia to drive them out!
		ai_chance = { factor = 75 }
		owner = {
			add_mil_power = -10
		}
		random_neighbor_province = {
			limit = {
				owner = {
					NOT = { has_country_flag = colonial_border_conflict }
					is_colonial_nation = yes
					colonial_parent = {
						any_subject_country = {
							is_colonial_nation = yes
							any_owned_province = {
								province_id = ROOT
							}
						}
					}
				}
				NOT = { owned_by = ROOT }
				is_colony = no
			}
			province_event = { id = conquest_of_paradise.311 days = 3 tooltip = "militia_border_attack" }
		}
	}
	option = {
		name = "colonial_nation.EVTOPTB310" # Let the situation resolve itself
		ai_chance = {
			factor = 25
			modifier = {
				factor = 0
				owner = {
					NOT = { prestige = 50 }
				}
			}
		}
		owner = {
			add_prestige = -10
		}
		add_province_modifier = {
			name = "foreign_settlers"
			duration = 365
		}
	}
}

# Colonial Border Conflict
province_event = {
	id = conquest_of_paradise.311
	title = "colonial_nation.EVTNAME310"
	desc = "colonial_nation.EVTDESC311"
	picture = BORDER_TENSION_eventPicture
	goto = root

	is_triggered_only = yes
	
	immediate = {
		hidden_effect = {
			owner = {
				set_country_flag = colonial_border_conflict
			}
		}
	}
	
	option = {
		name = "colonial_nation.EVTOPTA311" # Send in our local militia as well!
		ai_chance = { factor = 75 }
		owner = {
			add_mil_power = -10
		}
		add_province_modifier = {
			name = "militia_raid"
			duration = 365
		}
		FROM = {
			province_event = { id = conquest_of_paradise.312 days = 3 tooltip = "militia_border_attack" }
			hidden_effect = {
				owner = {
					set_country_flag = colonial_border_conflict_country_1
				}
			}
		}
		hidden_effect = {
			owner = {
				set_country_flag = colonial_border_conflict_country_2
				colonial_parent = {
					country_event = { id = conquest_of_paradise.313 days = 10 }
				}
			}
		}
	}
	option = {
		name = "colonial_nation.EVTOPTB311" # Let the situation resolve itself
		ai_chance = {
			factor = 25
			modifier = {
				factor = 0
				owner = {
					NOT = { prestige = 50 }
				}
			}
		}
		owner = {
			add_prestige = -10
		}
		add_province_modifier = {
			name = "foreign_settlers"
			duration = 365
		}
	}
}

# Colonial Border Conflict
province_event = {
	id = conquest_of_paradise.312
	title = "colonial_nation.EVTNAME310"
	desc = "colonial_nation.EVTDESC312"
	picture = BORDER_TENSION_eventPicture
	goto = root
	
	is_triggered_only = yes
	
	option = {
		name = "colonial_nation.EVTOPTA312" # Damn them!
		add_province_modifier = {
			name = "militia_raid"
			duration = 365
		}
	}
}

# Colonial Border Conflict
country_event = {
	id = conquest_of_paradise.313
	title = "colonial_nation.EVTNAME310"
	desc = "colonial_nation.EVTDESC313"
	picture = BORDER_TENSION_eventPicture
	
	is_triggered_only = yes
	
	option = {
		name = "colonial_nation.EVTOPTA313" # Let them sort it out themselves
		ai_chance = { factor = 25 }
		add_prestige = -10
	}
	option = {
		name = "colonial_nation.EVTOPTB313" # Remove GOVERNOR
		ai_chance = { factor = 25 }
		random_country = {
			limit = {
				is_colonial_nation_of = ROOT
				has_country_flag = colonial_border_conflict_country_1
			}
			tooltip = {
				add_liberty_desire = 10
			}
			hidden_effect = {
				country_event = { id = conquest_of_paradise.314 days = 3 }
				clr_country_flag = colonial_border_conflict_country_1
			}
		}
		random_country = {
			limit = {
				is_colonial_nation_of = ROOT
				has_country_flag = colonial_border_conflict_country_2
			}
			tooltip = {
				add_liberty_desire = -5
			}
			hidden_effect = {
				country_event = { id = conquest_of_paradise.315 days = 3 }
				clr_country_flag = colonial_border_conflict_country_2
			}
		}
	}
	option = {
		name = "colonial_nation.EVTOPTC313" # Remove GOVERNOR
		ai_chance = { factor = 25 }
		random_country = {
			limit = {
				is_colonial_nation_of = ROOT
				has_country_flag = colonial_border_conflict_country_2
			}
			tooltip = {
				add_liberty_desire = 10
			}
			hidden_effect = {
				country_event = { id = conquest_of_paradise.316 days = 3 }
				clr_country_flag = colonial_border_conflict_country_2
			}
		}
		random_country = {
			limit = {
				is_colonial_nation_of = ROOT
				has_country_flag = colonial_border_conflict_country_1
			}
			tooltip = {
				add_liberty_desire = -5
			}
			hidden_effect = {
				country_event = { id = conquest_of_paradise.317 days = 3 }
				clr_country_flag = colonial_border_conflict_country_1
			}
		}
	}
	option = {
		name = "colonial_nation.EVTOPTD313" # Sort out their differences
		ai_chance = { factor = 25 }
		add_dip_power = -50
	}
}

# Colonial Border Conflict
country_event = {
	id = conquest_of_paradise.314
	title = "colonial_nation.EVTNAME310"
	desc = "colonial_nation.EVTDESC314"
	picture = COURT_eventPicture
	
	is_triggered_only = yes
	
	option = {
		name = "colonial_nation.EVTOPTA314" # Who do that 'KING' think HE is?!
		define_ruler = {
		}
		add_liberty_desire = 10
	}
}

# Colonial Border Conflict
country_event = {
	id = conquest_of_paradise.315
	title = "colonial_nation.EVTNAME310"
	desc = "colonial_nation.EVTDESC315"
	picture = COURT_eventPicture
	
	is_triggered_only = yes
	
	option = {
		name = "colonial_nation.EVTOPTA315" # Well done!
		add_liberty_desire = -5
	}
}

# Colonial Border Conflict
country_event = {
	id = conquest_of_paradise.316
	title = "colonial_nation.EVTNAME310"
	desc = "colonial_nation.EVTDESC316"
	picture = COURT_eventPicture
	
	is_triggered_only = yes
	
	option = {
		name = "colonial_nation.EVTOPTA314" # Who do that 'KING' think HE is?!
		define_ruler = {
		}
		add_liberty_desire = 10
	}
}

# Colonial Border Conflict
country_event = {
	id = conquest_of_paradise.317
	title = "colonial_nation.EVTNAME310"
	desc = "colonial_nation.EVTDESC317"
	picture = COURT_eventPicture
	
	is_triggered_only = yes
	
	option = {
		name = "colonial_nation.EVTOPTA315" # Well done!
		add_liberty_desire = -5
	}
}

# Colonial Militia
country_event = {
	id = conquest_of_paradise.318
	title = "colonial_nation.EVTNAME318"
	desc = "colonial_nation.EVTDESC318"
	picture = LAND_MILITARY_eventPicture
	
	is_triggered_only = yes
	
	trigger = {
		has_dlc = "Conquest of Paradise"
		is_colonial_nation = yes
		has_country_modifier = colonial_assembly
		has_idea = colonial_militia
		liberty_desire = 25
	}
	
	mean_time_to_happen = {
		days = 1
	}
	
	option = {
		name = "colonial_nation.EVTOPTA318" # Establish it
		ai_chance = { factor = 50 }
		add_mil_power = -100
		add_country_modifier = {
			name = "enhanced_colonial_militia"
			duration = -1
		}
	}
	option = {
		name = "colonial_nation.EVTOPTB318" # Don't establish it
		ai_chance = { factor = 50 }
		add_mil_power = 50
	}
}

# Purchase of Land
province_event = {
	id = conquest_of_paradise.319
	title = "colonial_nation.EVTNAME319"
	desc = "colonial_nation.EVTDESC319"
	picture = NATIVES_eventPicture
	goto = root
	
	trigger = {
		has_dlc = "Conquest of Paradise"
		is_colony = no
		has_empty_adjacent_province = yes
		owner = {
			NOT = { has_country_flag = native_purchase_small }
			is_colonial_nation = yes
			treasury = 200
		}
		
	}
	
	mean_time_to_happen = {
		months = 2000 
	}
	
	immediate = {
		hidden_effect = {
			owner = {
				set_country_flag = native_purchase_small
			}
		}
	}
	
	option = {
		name = "colonial_nation.EVTOPTA319" # Good idea
		ai_chance = { factor = 75 }
		owner = {
			add_treasury = -150
		}
		add_base_tax = 1
	}
	option = {
		name = "colonial_nation.EVTOPTB319" # It's too costly
		ai_chance = { factor = 25 }
		add_unrest = 1
	}
}

#AnbennarDependencyNote = refers to continent
# Purchase of Land
country_event = {
	id = conquest_of_paradise.320
	title = "colonial_nation.EVTNAME319"
	desc = "colonial_nation.EVTDESC320"
	picture = NATIVES_eventPicture

	is_triggered_only = yes
	
	trigger = {
		has_dlc = "Conquest of Paradise"
		NOT = { has_country_flag = native_purchase }
		is_colonial_nation = yes
		NOT = { num_of_cities = 10 }
		treasury = 600
		any_owned_province = {
			OR = {
				continent = north_america
				continent = south_america
			}
			has_empty_adjacent_province = yes
		}
	}

	mean_time_to_happen = {
		days = 1
	}
	
	immediate = {
		hidden_effect = {
			set_country_flag = native_purchase
		}
	}
	
	option = {
		name = "colonial_nation.EVTOPTA319" # Good idea
		ai_chance = { factor = 75 }
		add_treasury = -500
		random_owned_province = {
			limit = {
				OR = {
					continent = north_america
					continent = south_america
				}
				has_empty_adjacent_province = yes
			}
			random_empty_neighbor_province = {
				create_colony = 300
			}
		}
	}
	option = {
		name = "colonial_nation.EVTOPTB319" # It's too costly
		ai_chance = { factor = 25 }
		add_adm_power = 10
	}
}

#AnbennarDependencyNote = refers to countries and mahaicans
# Last of the Mahican
# province_event = {
	# id = conquest_of_paradise.321
	# title = "colonial_nation.EVTNAME321"
	# desc = "colonial_nation.EVTDESC321"
	# picture = NATIVES_eventPicture
	# goto = root

	# trigger = {
		# has_dlc = "Conquest of Paradise"
		# is_colony = no
		# is_core = MAH
		# owner = {
			# NOT = { has_country_flag = last_of_the_mahican }
			# is_colonial_nation = yes
		# }
		
		# MAH = {
			# exists = no
		# }
	# }
	
	# mean_time_to_happen = {
		# months = 2000
	# }
	
	# immediate = {
		# hidden_effect = {
			# owner = {
				# set_country_flag = last_of_the_mahican
			# }
		# }
	# }
	
	# option = {
		# name = "colonial_nation.EVTOPTA321" # Offer them protection
		# ai_chance = { factor = 75 }
		# owner = {
			# add_mil_power = -10
		# }
		# add_province_modifier = {
			# name = "last_of_the_mahican"
			# duration = -1
		# }
	# }
	# option = {
		# name = "colonial_nation.EVTOPTB321" # Deny them
		# ai_chance = { factor = 25 }
		# owner = {
			# add_prestige = -15
		# }
	# }
# }

# # The PROVINCE Boys
# province_event = {
	# id = conquest_of_paradise.322
	# title = "colonial_nation.EVTNAME322"
	# desc = "colonial_nation.EVTDESC322"
	# picture = BORDER_TENSION_eventPicture
	# goto = root

	# trigger = {
		# has_dlc = "Conquest of Paradise"
		# has_province_modifier = last_of_the_mahican
		# owner = {
			# has_country_flag = last_of_the_mahican
			# is_colonial_nation = yes
		# }
		
	# }
	
	# mean_time_to_happen = {
		# months = 120
	# }
	
	# option = {
		# name = "colonial_nation.EVTOPTA322" # Protect the remnant at all cost
		# ai_chance = { factor = 75 }
		# owner = {
			# add_mil_power = -10
		# }
		# add_unrest = 3
	# }
	# option = {
		# name = "colonial_nation.EVTOPTB322" # We cannot save them...
		# ai_chance = { factor = 25 }
		# owner = {
			# add_prestige = -10
		# }
		# remove_province_modifier = last_of_the_mahican
		# add_unrest = -1
	# }
# }

# # The Last to Die
# province_event = {
	# id = conquest_of_paradise.323
	# title = "colonial_nation.EVTNAME323"
	# desc = "colonial_nation.EVTDESC323"
	# picture = NATIVES_eventPicture
	# goto = root

	# trigger = {
		# has_dlc = "Conquest of Paradise"
		# has_province_modifier = last_of_the_mahican
		# owner = {
			# has_country_flag = last_of_the_mahican
			# had_country_flag = { flag = last_of_the_mahican days = 3650 }
		# }
		
	# }
	
	# mean_time_to_happen = {
		# months = 2000
	# }
	
	# option = {
		# name = "colonial_nation.EVTOPTA323" # We can only mourn...
		# remove_province_modifier = last_of_the_mahican
	# }
# }
