
namespace = migration_force_settle

#As the AI currently refuse to use the Settle button
country_event = {
	id = migration_force_settle.1
	title = "theocracy.1.t"
	desc = "theocracy.1.desc"
	picture = RELIGION_eventPicture

	is_triggered_only = yes

	hidden = yes

	trigger = {
		OR = {
			has_reform = stake_our_claim
			has_reform = native_settle_down_reform
			has_reform = greentide_horde
		}

		any_owned_province = {
			any_empty_neighbor_province = {
				is_empty = yes
				tribal_land_of = ROOT
			}
		}

		tribal_development = 12

		adm_power = 50
		dip_power = 50

	}
	
	# Settle a province
	option = {
		name = migration_force_settle.1.a
		ai_chance = {
			factor = 1

			modifier = {
				factor = 1.5
				adm_power = 100
				dip_power = 100
			}
			modifier = {
				factor = 2
				adm_power = 200
				dip_power = 200
			}

		}

		random = {
			chance = 33
			random_owned_province = {
				limit = {
					any_neighbor_province = {
						is_empty = yes
						tribal_land_of = ROOT
					}
				}
				random_empty_neighbor_province = {
					limit = {
						is_empty = yes
						tribal_land_of = ROOT
					}
					settle_province = ROOT
					# if = {
					# 	limit = { NOT = { culture = root religion = root } }
					# 	change_culture = ROOT
					# 	change_religion = ROOT
					# 	add_devastation = 10
					# }
				}
			}
			add_adm_power = -25
			add_dip_power = -25
		}

	}

	
	# Dont do anything
	option = {
		name = migration_force_settle.1.b	
		ai_chance = {
			factor = 1

			modifier = {
				factor = 1.25
				any_neighbor_country = {
					tech_difference = 3
				}
			}

			modifier = {
				factor = 1.25
				NOT = { stability = 0 }
			}

		}

		#Do fuck all
	}
	
	#Gauranteed
	option = {
		name = migration_force_settle.1.c	
		ai_chance = {
			factor = 0.1

			modifier = {
				factor = 10
				tribal_development = 20
			}
			modifier = {
				factor = 10
				is_year = 1480
			}
			modifier = {
				factor = 5
				personality = ai_capitalist
			}
			modifier = {
				factor = 2
				personality = ai_militarist
			}

		}

		random = {
			chance = 66
			random_owned_province = {
				limit = {
					any_neighbor_province = {
						is_empty = yes
						tribal_land_of = ROOT
					}
				}
				random_empty_neighbor_province = {
					limit = {
						is_empty = yes
						tribal_land_of = ROOT
					}
					settle_province = ROOT
					# if = {
					# 	limit = { NOT = { culture = root religion = root } }
					# 	change_culture = ROOT
					# 	change_religion = ROOT
					# 	add_devastation = 10
					# }
				}
			}
			add_adm_power = -25
			add_dip_power = -25
		}
	}
	
}

#Startup
country_event = {
	id = migration_force_settle.2
	title = "theocracy.1.t"
	desc = "theocracy.1.desc"
	picture = RELIGION_eventPicture

	is_triggered_only = yes

	hidden = yes

	trigger = {
		NOT = { has_country_flag = migration_force_settle_orc_purge_expel_setup }
		NOT = { is_year = 1445 }
		ai = yes
		has_reform = adventurer_reform
	}

	#Gauranteed
	option = {
		name = migration_force_settle.2.c	

		set_country_flag = migration_force_settle_orc_purge_expel_setup

		random_list = {
			50 = {
				add_country_modifier = { 
					name = racial_pop_orcish_expulsion
					duration = -1  
				}
			}
			50 = {
				add_country_modifier = { 
					name = racial_pop_orcish_purge
					duration = -1  
				}
			}
		}
	}

}