
namespace = trade

# Respect our flag
country_event = {
	id = trade.1
	title = trade.1.t
	desc = trade.1.d
	picture = NAVAL_MILITARY_eventPicture
	
	is_triggered_only = yes
	trigger = {
		num_of_merchants = 3
		capital_scope = {
			has_trader = root
			NOT = { is_strongest_trade_power = root }
		}
		
		has_idea_group = maritime_ideas
	}
	
	mean_time_to_happen = {
		days = 1
		modifier = {
			factor = 1.5
			trade_ideas = 1
		}
		modifier = {
			factor = 3
			trade_ideas = 3
		}
		modifier = {
			factor = 5
			trade_ideas = 7
		}
	}
	
	option = {
		name = trade.1.a
		add_prestige = -30
		random_active_trade_node = {
			limit = {
				any_trade_node_member_province = {
					owned_by = ROOT
					is_capital = yes
				}
			}
			strongest_trade_power = { 
				reverse_add_casus_belli = {
					target = ROOT
					type = cb_trade_war_triggered
					months = 60
				}
			}
		}
	}
	option = {
		name = trade.1.b
		add_stability = -1
	}
}

# This cannot stand
country_event = {
	id = trade.2
	title = trade.2.t
	desc = trade.2.d
	picture = NAVAL_MILITARY_eventPicture
	
	is_triggered_only = yes
	trigger = {
		num_of_merchants = 3
		num_of_light_ship = 1
		capital_scope = {
			has_trader = root
			has_port = yes
			NOT = { is_strongest_trade_power = root }
			NOT = { 
				has_trade_modifier = {
					who = ROOT
					name = pirate_hunting
				}
			}
		}
	}
	
	mean_time_to_happen = {
		days = 1
		modifier = {
			factor = 1.5
			trade_ideas = 1
		}
		modifier = {
			factor = 3
			trade_ideas = 3
		}
		modifier = {
			factor = 5
			trade_ideas = 7
		}
	}
	
	option = {
		name = trade.2.a
		capital_scope = {
			add_trade_modifier = {
				who = root
				duration = 1825
				power = -10
				key = pirate_hunting
			}
		}
		add_dip_power = -75
	}
	option = {
		name = trade.2.b
		add_stability = -1
	}
}

# Expulsion of Merchants
country_event = {
	id = trade.3
	title = trade.3.t
	desc = trade.3.d
	picture = MERCHANTS_TALKING_eventPicture
	
	is_triggered_only = yes

	trigger = {
		num_of_merchants = 3
		any_active_trade_node = {
			has_merchant = PREV
			most_province_trade_power = {
				NOT = { tag = ROOT }
				exists = yes
			}
		}
	}

	mean_time_to_happen = {
		days = 1
	}

	option = {
		name = trade.3.a
		ai_chance = { factor = 100 }
		random_active_trade_node = {
			limit = {
				has_merchant = PREV
				NOT = { most_province_trade_power = { tag = ROOT } }
			}
			most_province_trade_power = {
				add_opinion = {
					who = root
					modifier = merchants_too_succesful
				}
			}
			add_trade_modifier = {
				who = root
				duration = 365
				power = 5
				key = merchants_too_succesful
			}
		}
	}
	option = {
		name = trade.3.b
		random_active_trade_node = {
			limit = {
				NOT = { most_province_trade_power = { tag = ROOT } }
				has_merchant = PREV
			}
			most_province_trade_power = {
				add_opinion = {
					who = root
					modifier = merchants_standing_down
				}
			}
			add_trade_modifier = {
				who = root
				duration = 365
				power = -5
				key = merchants_standing_down
			}
		}		
	}
}

# Trade Crisis
country_event = {
	id = trade.4
	title = trade.4.t
	desc = trade.4.d
	picture = MERCHANTS_TALKING_eventPicture
	
	is_triggered_only = yes

	trigger = {
		num_of_merchants = 3
		trade_income_percentage = 0.33
		dip_power = 20
		NOT = { luck = yes }
		NOT = { has_country_modifier = minor_trade_crisis }
		NOT = { has_country_modifier = severe_trade_crisis }
	}

	mean_time_to_happen = {
		days = 1
		modifier = {
			factor = 1.5
			NOT = { adm = 3 }
		}
		modifier = {
			factor = 1.5
			trade_income_percentage = 0.5
		}

	}
	option = {
		name = trade.4.a
		add_country_modifier = {
			name = "severe_trade_crisis"
			duration = 365
		}
	}
	option = {
		name = trade.4.b
		add_dip_power = -25
		add_country_modifier = {
			name = "minor_trade_crisis"
			duration = 365
		}
	}
}

# Merchant Bankrupt!
country_event = {
	id = trade.5
	title = trade.5.t
	desc = trade.5.d
	picture = MERCHANTS_TALKING_eventPicture
	
	is_triggered_only = yes

	trigger = {
		num_of_merchants = 3
		NOT = { luck = yes }
		any_active_trade_node = {
			NOT = { strongest_trade_power = { tag = ROOT } }
			NOT = { 
				has_trade_modifier = {
					who = ROOT
					name = merchant_recalled
				}
			}			
		}
	}

	mean_time_to_happen = {
		days = 1
		modifier = {
			factor = 1.5
			NOT = { trade_ideas = 3 }
		}
		modifier = {
			factor = 1.5
			NOT = { trade_ideas = 7 }
		}		
	}
	
	option = {
		name = trade.5.a
		random_active_trade_node = {
			limit = {
				NOT = { strongest_trade_power = { tag = ROOT } }
				NOT = { 
					has_trade_modifier = {
						who = ROOT
						name = merchant_recalled
					}
				}				
			}
			add_trade_modifier = {
				who = root
				duration = 3650
				power = -10
				key = merchant_recalled
			}	
		}		
	}
	option = {
		name = trade.5.b
		add_dip_power = -10
		random_active_trade_node = {
			limit = {
				NOT = { strongest_trade_power = { tag = ROOT } }
			}
			add_trade_node_income = -5
		}
	}
}

# Merchant Shipwrecked!
country_event = {
	id = trade.6
	title = trade.6.t
	desc = trade.6.d
	picture = MERCHANTS_TALKING_eventPicture
	
	is_triggered_only = yes

	trigger = {
		num_of_merchants = 3
		NOT = { luck = yes }
		any_active_trade_node = {
			has_merchant = PREV
			is_sea = yes
		}
	}

	mean_time_to_happen = {
		days = 1
	}

	option = {
		name = trade.6.a
		random_active_trade_node = {
			limit = {
				is_sea = yes
				has_merchant = PREV
			}
			add_trade_node_income = -10
		}		
	}
}

# Merchants suffering
country_event = {
	id = trade.7
	title = trade.7.t
	desc = trade.7.d
	picture = MERCHANTS_TALKING_eventPicture
	
	is_triggered_only = yes

	trigger = {
		any_active_trade_node = {
			NOT = { owned_by = ROOT }
			has_merchant = PREV
			NOT = { 
				has_trade_modifier = {
					who = ROOT
					name = merchant_recalled
				}
			}			
		}
	}
	
	option = {
		name = trade.7.a
		add_dip_power = -10
	}
	option = {
		name = trade.7.b
		random_active_trade_node = {
			limit = {
				NOT = { owned_by = ROOT }
				has_merchant = PREV
				NOT = { 
					has_trade_modifier = {
						who = ROOT
						name = merchant_recalled
					}
				}				
			}
			add_trade_modifier = {
				who = root
				duration = 3650
				power = -10
				key = merchant_recalled
			}	
		}
	}
}

# No one wants to work
country_event = {
	id = trade.8
	title = trade.8.t
	desc = trade.8.d
	picture = MERCHANTS_TALKING_eventPicture
	
	is_triggered_only = yes

	trigger = {
		any_active_trade_node = {
			has_most_province_trade_power = root
			has_merchant = PREV
		}
	}
	
	option = {
		name = trade.8.a
		random_active_trade_node = {
			limit = {
				has_most_province_trade_power = root
				has_merchant = PREV
			}
			add_trade_node_income = -5
		}
	}
}

# Taking advantage of our trade
country_event = {
	id = trade.9
	title = trade.9.t
	desc = trade.9.d
	picture = MERCHANTS_TALKING_eventPicture
	
	is_triggered_only = yes
	
	trigger = {
		mercantilism = 55
		num_of_merchants = 3
	}
	
	immediate = {
		check_if_non_state_advisor_effect = { #Hidden, must be followed by erase_advisor_flags_effect
			chance_of_primary = 75 #Not percentages!
			chance_of_tertiary = 10
			chance_of_secondary = 35
		}
	}
	
	option = {
		name = trade.9.a
		add_meritocracy_effect = yes
		generate_advisor_of_type_and_semi_random_religion_effect = {
			advisor_type=treasurer
			advisor_type_if_not_state=treasurer
			skill = 3
			discount=yes
		}
	}
	
	after = {
		erase_advisor_flags_effect = yes
	}
}

# Lack of protection
country_event = {
	id = trade.10
	title = trade.10.t
	desc = trade.10.d
	picture = MERCHANTS_TALKING_eventPicture
	
	is_triggered_only = yes

	trigger = {
		num_of_merchants = 3
		any_active_trade_node = {
			not = { has_most_province_trade_power = root }
			has_merchant = PREV
			NOT = { 
				has_trade_modifier = {
					who = ROOT
					name = merchant_recalled
				}
			}			
		}
	}	
	
	option = {
		name = trade.10.a
		add_dip_power = -15
	}
	option = {
		name = trade.10.b
		random_active_trade_node = {
			limit = {
				not = { has_most_province_trade_power = root }
				has_merchant = PREV
				NOT = { 
					has_trade_modifier = {
						who = ROOT
						name = merchant_recalled
					}
				}				
			}
			add_trade_modifier = {
				who = root
				duration = 3650
				power = -10
				key = merchant_recalled
			}	
		}
	}
}

# Merchants leaving
country_event = {
	id = trade.11
	title = trade.11.t
	desc = trade.11.d
	picture = MERCHANTS_TALKING_eventPicture
	
	is_triggered_only = yes
	
	trigger = {
		NOT = { mercantilism = 40 }
		num_of_merchants = 3
	}
	
	option = {
		name = trade.11.a
		add_country_modifier = {
			name = bad_free_trade_merchants
			duration = 730
		}		
	}
}

# Promising Trader
country_event = {
	id = trade.12
	title = trade.12.t
	desc = trade.12.d
	picture = MERCHANTS_TALKING_eventPicture
	
	is_triggered_only = yes
	
	immediate = {
		check_if_non_state_advisor_effect = { #Hidden, must be followed by erase_advisor_flags_effect
			chance_of_primary = 75 #Not percentages!
			chance_of_tertiary = 10
			chance_of_secondary = 25
		}
	}
	
	option = {
		name = trade.12.a
		add_meritocracy_effect = yes
		generate_advisor_of_type_and_semi_random_religion_effect = {
			advisor_type=trader
			advisor_type_if_not_state=trader
			skill = 2
			discount=yes
		}
	}
	after = {
		erase_advisor_flags_effect = yes
	}
}

# Our Mercantilist Policies Strengthen trade
country_event = {
	id = 6326
	title = "EVTNAME6326"
	desc = "EVTDESC6326"
	picture = MERCHANTS_TALKING_eventPicture
	
	is_triggered_only = yes
	trigger = {
		mercantilism = 50
		num_of_merchants = 3
		NOT = {
			has_country_modifier = mercantilism_modifier
		}
	}

	mean_time_to_happen = {
		days = 1
	}

	option = {
		name = "EVTOPTA6326"
		add_country_modifier = {
			name = mercantilism_modifier
			duration = 3650
		}
	}
}

# Merchant defects
country_event = {
	id = 6327
	title = "EVTNAME6327"
	desc = "EVTDESC6327" 
	picture = MERCHANTS_TALKING_eventPicture

	is_triggered_only = yes
	
	trigger = {
		NOT = {mercantilism = 50 }
		num_of_merchants = 1
		any_active_trade_node = {
			has_merchant = PREV
			NOT = { 
				has_trade_modifier = {
					who = ROOT
					name = merchant_recalled
				}
			}			
		}
		NOT = {
			has_country_modifier = freetrade_modifier
		}
	}

	mean_time_to_happen = {
		days = 1
	}

	option = {
		name = "EVTOPTA6327"
		random_active_trade_node = {
			limit = {
				has_merchant = PREV
				NOT = { 
					has_trade_modifier = {
						who = ROOT
						name = merchant_recalled
					}
				}
			}
			add_trade_modifier = {
				who = root
				duration = 3650
				power = -10
				key = merchant_recalled
			}			
		}
		add_mercantilism = 1
	}	

	option = {
		name = "EVTOPTB6327"
		add_country_modifier = {
			name = freetrade_modifier
			duration = 3650
		}
		add_mercantilism = -1
	}
} 

# Trade Expansion
country_event = {
	id = 6328
	title = "EVTNAME6328"
	desc = "EVTDESC6328"
	picture = MERCHANTS_TALKING_eventPicture

	is_triggered_only = yes
	
	trigger = {
		NOT = { mercantilism = 20 }
		any_active_trade_node = {
			is_sea = yes
			has_merchant = PREV
		}	
		NOT = {
			has_country_modifier = freetrade_modifier
		}			
	}

	mean_time_to_happen = {
		days = 1
	}

	option = {
		name = "EVTOPTA6328"
		add_country_modifier = {
			name = freetrade_modifier
			duration = 3650
		}		
	}
}	

# Merchants worried about lack of protection
country_event = {
	id = 6329
	title = "EVTNAME6329"
	desc = "EVTDESC6329"
	picture = MERCHANTS_TALKING_eventPicture

	is_triggered_only = yes
	
	trigger = {
		NOT = { mercantilism = 40 }
	}

	mean_time_to_happen = {
		days = 1
	}

	option = {
		name = "EVTOPTA6329"
		add_country_modifier = {
			name = "lack_of_protection"
			duration = 120
		}
	}
	option = {
		name = "EVTOPTB6329"
		add_mercantilism = 1
		add_dip_power = -25
	}
}

#######################################
#		SLAVES	NO MORE!      #
#######################################

country_event = {
	id = 9520
	title = "EVTNAME9520"
	desc = "EVTDESC9520"
	picture = TRADEGOODS_eventPicture

	trigger = {
		has_country_modifier = the_abolish_slavery_act
		any_owned_province = { trade_goods = slaves }
	}

	mean_time_to_happen = {
		months = 1
	}
	
	option = {
		name = "EVTOPTA9520"
		every_owned_province = {
			limit = { trade_goods = slaves }
			change_trade_goods = random
			remove_building = tradecompany
			if = {
				limit = { has_province_modifier = slave_entrepot }
				remove_province_modifier = slave_entrepot
			}
		}
	}
}
